…
``` r
# import the raw count data, there are two rows of unwanted materials, so I will have to skip it
raw.counts <- read.delim("../../CCLE_DepMap_18Q2_RNAseq_reads_20180502.gct",
                         header = TRUE, stringsAsFactors = FALSE,
                         skip = 2)
as.tibble(raw.counts)
```

    ## # A tibble: 56,318 x 1,078
    ##    Name  Description X22RV1_PROSTATE X2313287_STOMACH X253JBV_URINARY~
    ##    <chr> <chr>                 <dbl>            <dbl>            <dbl>
    ##  1 ENSG~ DDX11L1                   0                2                0
    ##  2 ENSG~ WASH7P                 2316             1538             1094
    ##  3 ENSG~ MIR1302-11                5                1               19
    ##  4 ENSG~ FAM138A                   0                1               30
    ##  5 ENSG~ OR4G4P                    0                0                3
    ##  6 ENSG~ OR4G11P                   0                0                2
    ##  7 ENSG~ OR4F5                     0                0                0
    ##  8 ENSG~ RP11-34P13~              63               40               23
    ##  9 ENSG~ CICP27                  165               33               46
    ## 10 ENSG~ AL627309.1             1877             1650              302
    ## # ... with 56,308 more rows, and 1,073 more variables:
    ## #   X253J_URINARY_TRACT <dbl>, X42MGBA_CENTRAL_NERVOUS_SYSTEM <dbl>,
    ## #   X5637_URINARY_TRACT <dbl>, X59M_OVARY <dbl>,
    ## #   X639V_URINARY_TRACT <dbl>, X647V_URINARY_TRACT <dbl>,
    ## #   X697_HAEMATOPOIETIC_AND_LYMPHOID_TISSUE <dbl>, X769P_KIDNEY <dbl>,
    ## #   X786O_KIDNEY <dbl>, X8305C_THYROID <dbl>, X8505C_THYROID <dbl>,
    ## #   X8MGBA_CENTRAL_NERVOUS_SYSTEM <dbl>, A101D_SKIN <dbl>,
    ## #   A1207_CENTRAL_NERVOUS_SYSTEM <dbl>, A172_CENTRAL_NERVOUS_SYSTEM <dbl>,
    ## #   A204_SOFT_TISSUE <dbl>, A2058_SKIN <dbl>, A253_SALIVARY_GLAND <dbl>,
…
